task4/clktick.vcd
$version Generated by VerilatedVcd $end
$date Sat Nov  5 17:04:18 2022 $end
$timescale 1ps $end

 $scope module TOP $end
  $var wire  8 ) LFSROut [7:0] $end
  $var wire  1 # clk $end
  $var wire  1 ( cmd_delay $end
  $var wire  1 ' cmd_seq $end
  $var wire  8 & dout [7:0] $end
  $var wire  1 $ rst $end
  $var wire  1 * time_out_0 $end
  $var wire  1 + time_out_1 $end
  $var wire  1 % trigger $end
  $scope module top $end
   $var wire  8 ) LFSROut [7:0] $end
   $var wire  1 # clk $end
   $var wire  1 ( cmd_delay $end
   $var wire  1 ' cmd_seq $end
   $var wire  8 & dout [7:0] $end
   $var wire  1 $ rst $end
   $var wire  1 * time_out_0 $end
   $var wire  1 + time_out_1 $end
   $var wire  1 % trigger $end
   $scope module myClktick $end
    $var wire 16 6 N [15:0] $end
    $var wire 32 5 WIDTH [31:0] $end
    $var wire  1 # clk $end
    $var wire 16 , count [15:0] $end
    $var wire  1 ' en $end
    $var wire  1 $ rst $end
    $var wire  1 + tick $end
   $upscope $end
   $scope module myDelay $end
    $var wire 32 7 WIDTH [31:0] $end
    $var wire  1 # clk $end
    $var wire  8 - count [7:0] $end
    $var wire 32 . current_state [31:0] $end
    $var wire  8 ) n [7:0] $end
    $var wire 32 / next_state [31:0] $end
    $var wire  1 $ rst $end
    $var wire  1 * time_out $end
    $var wire  1 ( trigger $end
   $upscope $end
   $scope module myF1FSM $end
    $var wire  1 # clk $end
    $var wire  1 ( cmd_delay $end
    $var wire  1 ' cmd_seq $end
    $var wire 32 1 current [31:0] $end
    $var wire  8 & dout [7:0] $end
    $var wire  1 0 en $end
    $var wire 32 2 next [31:0] $end
    $var wire  1 $ rst $end
    $var wire  1 % trigger $end
   $upscope $end
   $scope module myLFSR $end
    $var wire 32 8 WIDTH [31:0] $end
    $var wire  1 # clk $end
    $var wire  7 3 data_out [6:0] $end
    $var wire  1 9 en $end
    $var wire  1 $ rst $end
    $var wire  7 4 sreg [6:0] $end
   $upscope $end
  $upscope $end
 $upscope $end
$enddefinitions $end


#0
1#
1$
0%
b00000000 &
0'
0(
b00000000 )
0*
0+
b0000000000000000 ,
b00000000 -
b00000000000000000000000000000000 .
b00000000000000000000000000000000 /
00
b00000000000000000000000000000000 1
b00000000000000000000000000000001 2
b0000000 3
b0000000 4
b00000000000000000000000000010000 5
b0000000000011011 6
b00000000000000000000000000001000 7
b00000000000000000000000000000111 8
19
#1
0#
1'
#2
1#
b0000000000011011 ,
b11111111 -
b1111111 4
#3
0#
#4
1#
b01111111 )
b1111111 3
#5
0#
#6
1#
0$
b01111110 -
#7
0#
#8
1#
b0000000000011010 ,
b01111101 -
b1111110 4
#9
0#
#10
1#
b01111110 )
b0000000000011001 ,
b01111100 -
b1111110 3
b1111100 4
#11
0#
#12
1#
b01111100 )
b0000000000011000 ,
b01111011 -
b1111100 3
b1111000 4
#13
0#
#14
1#
b01111000 )
b0000000000010111 ,
b01111010 -
b1111000 3
b1110001 4
#15
0#
#16
1#
b01110001 )
b0000000000010110 ,
b01111001 -
b1110001 3
b1100011 4
#17
0#
#18
1#
b01100011 )
b0000000000010101 ,
b01111000 -
b1100011 3
b1000111 4
#19
0#
#20
1#
b01000111 )
b0000000000010100 ,
b01110111 -
b1000111 3
b0001110 4
#21
0#
#22
1#
b00001110 )
b0000000000010011 ,
b01110110 -
b0001110 3
b0011101 4
#23
0#
#24
1#
b00011101 )
b0000000000010010 ,
b01110101 -
b0011101 3
b0111011 4
#25
0#
#26
1#
b00111011 )
b0000000000010001 ,
b01110100 -
b0111011 3
b1110110 4
#27
0#
#28
1#
b01110110 )
b0000000000010000 ,
b01110011 -
b1110110 3
b1101100 4
#29
0#
#30
1#
b01101100 )
b0000000000001111 ,
b01110010 -
b1101100 3
b1011000 4
#31
0#
#32
1#
b01011000 )
b0000000000001110 ,
b01110001 -
b1011000 3
b0110001 4
#33
0#
#34
1#
b00110001 )
b0000000000001101 ,
b01110000 -
b0110001 3
b1100010 4
#35
0#
#36
1#
b01100010 )
b0000000000001100 ,
b01101111 -
b1100010 3
b1000101 4
#37
0#
#38
1#
b01000101 )
b0000000000001011 ,
b01101110 -
b1000101 3
b0001010 4
#39
0#
#40
1#
b00001010 )
b0000000000001010 ,
b01101101 -
b0001010 3
b0010100 4
#41
0#
#42
1#
b00010100 )
b0000000000001001 ,
b01101100 -
b0010100 3
b0101001 4
#43
0#
#44
1#
b00101001 )
b0000000000001000 ,
b01101011 -
b0101001 3
b1010010 4
#45
0#
#46
1#
b01010010 )
b0000000000000111 ,
b01101010 -
b1010010 3
b0100101 4
#47
0#
#48
1#
b00100101 )
b0000000000000110 ,
b01101001 -
b0100101 3
b1001011 4
#49
0#
#50
1#
b01001011 )
b0000000000000101 ,
b01101000 -
b1001011 3
b0010111 4
#51
0#
#52
1#
b00010111 )
b0000000000000100 ,
b01100111 -
b0010111 3
b0101111 4
#53
0#
#54
1#
b00101111 )
b0000000000000011 ,
b01100110 -
b0101111 3
b1011111 4
#55
0#
#56
1#
b01011111 )
b0000000000000010 ,
b01100101 -
b1011111 3
b0111110 4
#57
0#
#58
1#
b00111110 )
b0000000000000001 ,
b01100100 -
b0111110 3
b1111101 4
#59
0#
#60
1#
b01111101 )
b0000000000000000 ,
b01100011 -
b1111101 3
b1111010 4
#61
0#
#62
1#
b01111010 )
1+
b0000000000011011 ,
b01100010 -
10
b1111010 3
b1110101 4
#63
0#
#64
1#
b01110101 )
0+
b0000000000011010 ,
b01100001 -
00
b1110101 3
b1101010 4
#65
0#
#66
1#
1%
b01101010 )
b0000000000011001 ,
b01100000 -
b1101010 3
b1010101 4
#67
0#
#68
1#
b01010101 )
b0000000000011000 ,
b01011111 -
b1010101 3
b0101010 4
#69
0#
#70
1#
b00101010 )
b0000000000010111 ,
b01011110 -
b0101010 3
b1010100 4
#71
0#
#72
1#
b01010100 )
b0000000000010110 ,
b01011101 -
b1010100 3
b0101000 4
#73
0#
#74
1#
b00101000 )
b0000000000010101 ,
b01011100 -
b0101000 3
b1010000 4
#75
0#
#76
1#
b01010000 )
b0000000000010100 ,
b01011011 -
b1010000 3
b0100001 4
#77
0#
#78
1#
b00100001 )
b0000000000010011 ,
b01011010 -
b0100001 3
b1000010 4
#79
0#
#80
1#
b01000010 )
b0000000000010010 ,
b01011001 -
b1000010 3
b0000101 4
#81
0#
#82
1#
b00000101 )
b0000000000010001 ,
b01011000 -
b0000101 3
b0001011 4
#83
0#
#84
1#
b00001011 )
b0000000000010000 ,
b01010111 -
b0001011 3
b0010110 4
#85
0#
#86
1#
b00010110 )
b0000000000001111 ,
b01010110 -
b0010110 3
b0101101 4
#87
0#
#88
1#
b00101101 )
b0000000000001110 ,
b01010101 -
b0101101 3
b1011011 4
#89
0#
#90
1#
b01011011 )
b0000000000001101 ,
b01010100 -
b1011011 3
b0110111 4
#91
0#
#92
1#
b00110111 )
b0000000000001100 ,
b01010011 -
b0110111 3
b1101111 4
#93
0#
#94
1#
b01101111 )
b0000000000001011 ,
b01010010 -
b1101111 3
b1011110 4
#95
0#
#96
1#
b01011110 )
b0000000000001010 ,
b01010001 -
b1011110 3
b0111100 4
#97
0#
#98
1#
b00111100 )
b0000000000001001 ,
b01010000 -
b0111100 3
b1111001 4
#99
0#
#100
1#
b01111001 )
b0000000000001000 ,
b01001111 -
b1111001 3
b1110011 4
#101
0#
#102
1#
b01110011 )
b0000000000000111 ,
b01001110 -
b1110011 3
b1100111 4
#103
0#
#104
1#
b01100111 )
b0000000000000110 ,
b01001101 -
b1100111 3
b1001110 4
#105
0#
#106
1#
b01001110 )
b0000000000000101 ,
b01001100 -
b1001110 3
b0011100 4
#107
0#
#108
1#
b00011100 )
b0000000000000100 ,
b01001011 -
b0011100 3
b0111001 4
#109
0#
#110
1#
b00111001 )
b0000000000000011 ,
b01001010 -
b0111001 3
b1110010 4
#111
0#
#112
1#
b01110010 )
b0000000000000010 ,
b01001001 -
b1110010 3
b1100101 4
#113
0#
#114
1#
b01100101 )
b0000000000000001 ,
b01001000 -
b1100101 3
b1001010 4
#115
0#
#116
1#
b01001010 )
b0000000000000000 ,
b01000111 -
b1001010 3
b0010101 4
#117
0#
#118
1#
b00010101 )
1+
b0000000000011011 ,
b01000110 -
10
b0010101 3
b0101011 4
#119
0#
#120
1#
b00000001 &
b00101011 )
0+
b0000000000011010 ,
b01000101 -
00
b00000000000000000000000000000001 1
b00000000000000000000000000000010 2
b0101011 3
b1010110 4
#121
0#
#122
1#
b01010110 )
b0000000000011001 ,
b01000100 -
b1010110 3
b0101100 4
#123
0#
#124
1#
b00101100 )
b0000000000011000 ,
b01000011 -
b0101100 3
b1011001 4
#125
0#
#126
1#
b01011001 )
b0000000000010111 ,
b01000010 -
b1011001 3
b0110011 4
#127
0#
#128
1#
b00110011 )
b0000000000010110 ,
b01000001 -
b0110011 3
b1100110 4
#129
0#
#130
1#
b01100110 )
b0000000000010101 ,
b01000000 -
b1100110 3
b1001100 4
#131
0#
#132
1#
b01001100 )
b0000000000010100 ,
b00111111 -
b1001100 3
b0011000 4
#133
0#
#134
1#
b00011000 )
b0000000000010011 ,
b00111110 -
b0011000 3
b0110000 4
#135
0#
#136
1#
b00110000 )
b0000000000010010 ,
b00111101 -
b0110000 3
b1100000 4
#137
0#
#138
1#
b01100000 )
b0000000000010001 ,
b00111100 -
b1100000 3
b1000001 4
#139
0#
#140
1#
b01000001 )
b0000000000010000 ,
b00111011 -
b1000001 3
b0000011 4
#141
0#
#142
1#
b00000011 )
b0000000000001111 ,
b00111010 -
b0000011 3
b0000110 4
#143
0#
#144
1#
b00000110 )
b0000000000001110 ,
b00111001 -
b0000110 3
b0001101 4
#145
0#
#146
1#
b00001101 )
b0000000000001101 ,
b00111000 -
b0001101 3
b0011011 4
#147
0#
#148
1#
b00011011 )
b0000000000001100 ,
b00110111 -
b0011011 3
b0110110 4
#149
0#
#150
1#
b00110110 )
b0000000000001011 ,
b00110110 -
b0110110 3
b1101101 4
#151
0#
#152
1#
b01101101 )
b0000000000001010 ,
b00110101 -
b1101101 3
b1011010 4
#153
0#
#154
1#
b01011010 )
b0000000000001001 ,
b00110100 -
b1011010 3
b0110101 4
#155
0#
#156
1#
b00110101 )
b0000000000001000 ,
b00110011 -
b0110101 3
b1101011 4
#157
0#
#158
1#
b01101011 )
b0000000000000111 ,
b00110010 -
b1101011 3
b1010111 4
#159
0#
#160
1#
b01010111 )
b0000000000000110 ,
b00110001 -
b1010111 3
b0101110 4
#161
0#
#162
1#
b00101110 )
b0000000000000101 ,
b00110000 -
b0101110 3
b1011101 4
#163
0#
#164
1#
b01011101 )
b0000000000000100 ,
b00101111 -
b1011101 3
b0111010 4
#165
0#
#166
1#
b00111010 )
b0000000000000011 ,
b00101110 -
b0111010 3
b1110100 4
#167
0#
#168
1#
b01110100 )
b0000000000000010 ,
b00101101 -
b1110100 3
b1101000 4
#169
0#
#170
1#
b01101000 )
b0000000000000001 ,
b00101100 -
b1101000 3
b1010001 4
#171
0#
#172
1#
b01010001 )
b0000000000000000 ,
b00101011 -
b1010001 3
b0100011 4
#173
0#
#174
1#
b00100011 )
1+
b0000000000011011 ,
b00101010 -
10
b0100011 3
b1000110 4
#175
0#
#176
1#
b00000011 &
b01000110 )
0+
b0000000000011010 ,
b00101001 -
00
b00000000000000000000000000000010 1
b00000000000000000000000000000011 2
b1000110 3
b0001100 4
#177
0#
#178
1#
b00001100 )
b0000000000011001 ,
b00101000 -
b0001100 3
b0011001 4
#179
0#
#180
1#
b00011001 )
b0000000000011000 ,
b00100111 -
b0011001 3
b0110010 4
#181
0#
#182
1#
b00110010 )
b0000000000010111 ,
b00100110 -
b0110010 3
b1100100 4
#183
0#
#184
1#
b01100100 )
b0000000000010110 ,
b00100101 -
b1100100 3
b1001000 4
#185
0#
#186
1#
b01001000 )
b0000000000010101 ,
b00100100 -
b1001000 3
b0010001 4
#187
0#
#188
1#
b00010001 )
b0000000000010100 ,
b00100011 -
b0010001 3
b0100010 4
#189
0#
#190
1#
b00100010 )
b0000000000010011 ,
b00100010 -
b0100010 3
b1000100 4
#191
0#
#192
1#
b01000100 )
b0000000000010010 ,
b00100001 -
b1000100 3
b0001000 4
#193
0#
#194
1#
b00001000 )
b0000000000010001 ,
b00100000 -
b0001000 3
b0010000 4
#195
0#
#196
1#
b00010000 )
b0000000000010000 ,
b00011111 -
b0010000 3
b0100000 4
#197
0#
#198
1#
b00100000 )
b0000000000001111 ,
b00011110 -
b0100000 3
b1000000 4
#199
0#
#200
1#
b01000000 )
b0000000000001110 ,
b00011101 -
b1000000 3
b0000001 4
#201
0#
#202
1#
b00000001 )
b0000000000001101 ,
b00011100 -
b0000001 3
b0000010 4
#203
0#
#204
1#
b00000010 )
b0000000000001100 ,
b00011011 -
b0000010 3
b0000100 4
#205
0#
#206
1#
b00000100 )
b0000000000001011 ,
b00011010 -
b0000100 3
b0001001 4
#207
0#
#208
1#
b00001001 )
b0000000000001010 ,
b00011001 -
b0001001 3
b0010010 4
#209
0#
#210
1#
b00010010 )
b0000000000001001 ,
b00011000 -
b0010010 3
b0100100 4
#211
0#
#212
1#
b00100100 )
b0000000000001000 ,
b00010111 -
b0100100 3
b1001001 4
#213
0#
#214
1#
b01001001 )
b0000000000000111 ,
b00010110 -
b1001001 3
b0010011 4
#215
0#
#216
1#
b00010011 )
b0000000000000110 ,
b00010101 -
b0010011 3
b0100110 4
#217
0#
#218
1#
b00100110 )
b0000000000000101 ,
b00010100 -
b0100110 3
b1001101 4
#219
0#
#220
1#
b01001101 )
b0000000000000100 ,
b00010011 -
b1001101 3
b0011010 4
#221
0#
#222
1#
b00011010 )
b0000000000000011 ,
b00010010 -
b0011010 3
b0110100 4
#223
0#
#224
1#
b00110100 )
b0000000000000010 ,
b00010001 -
b0110100 3
b1101001 4
#225
0#
#226
1#
b01101001 )
b0000000000000001 ,
b00010000 -
b1101001 3
b1010011 4
#227
0#
#228
1#
b01010011 )
b0000000000000000 ,
b00001111 -
b1010011 3
b0100111 4
#229
0#
#230
1#
b00100111 )
1+
b0000000000011011 ,
b00001110 -
10
b0100111 3
b1001111 4
#231
0#
#232
1#
b00000111 &
b01001111 )
0+
b0000000000011010 ,
b00001101 -
00
b00000000000000000000000000000011 1
b00000000000000000000000000000100 2
b1001111 3
b0011110 4
#233
0#
#234
1#
b00011110 )
b0000000000011001 ,
b00001100 -
b0011110 3
b0111101 4
#235
0#
#236
1#
b00111101 )
b0000000000011000 ,
b00001011 -
b0111101 3
b1111011 4
#237
0#
#238
1#
b01111011 )
b0000000000010111 ,
b00001010 -
b1111011 3
b1110111 4
#239
0#
#240
1#
b01110111 )
b0000000000010110 ,
b00001001 -
b1110111 3
b1101110 4
#241
0#
#242
1#
b01101110 )
b0000000000010101 ,
b00001000 -
b1101110 3
b1011100 4
#243
0#
#244
1#
b01011100 )
b0000000000010100 ,
b00000111 -
b1011100 3
b0111000 4
#245
0#
#246
1#
b00111000 )
b0000000000010011 ,
b00000110 -
b0111000 3
b1110000 4
#247
0#
#248
1#
b01110000 )
b0000000000010010 ,
b00000101 -
b1110000 3
b1100001 4
#249
0#
#250
1#
b01100001 )
b0000000000010001 ,
b00000100 -
b1100001 3
b1000011 4
#251
0#
#252
1#
b01000011 )
b0000000000010000 ,
b00000011 -
b1000011 3
b0000111 4
#253
0#
#254
1#
b00000111 )
b0000000000001111 ,
b00000010 -
b0000111 3
b0001111 4
#255
0#
#256
1#
b00001111 )
b0000000000001110 ,
b00000001 -
b0001111 3
b0011111 4
#257
0#
#258
1#
b00011111 )
b0000000000001101 ,
b00000000 -
b0011111 3
b0111111 4
#259
0#
#260
1#
b00111111 )
b0000000000001100 ,
b00011110 -
b0111111 3
b1111111 4
#261
0#
#262
1#
b01111111 )
b0000000000001011 ,
b00011101 -
b1111111 3
b1111110 4
#263
0#
#264
1#
b01111110 )
b0000000000001010 ,
b00011100 -
b1111110 3
b1111100 4
#265
0#
#266
1#
b01111100 )
b0000000000001001 ,
b00011011 -
b1111100 3
b1111000 4
#267
0#
#268
1#
b01111000 )
b0000000000001000 ,
b00011010 -
b1111000 3
b1110001 4
#269
0#
#270
1#
b01110001 )
b0000000000000111 ,
b00011001 -
b1110001 3
b1100011 4
#271
0#
#272
1#
b01100011 )
b0000000000000110 ,
b00011000 -
b1100011 3
b1000111 4
#273
0#
#274
1#
b01000111 )
b0000000000000101 ,
b00010111 -
b1000111 3
b0001110 4
#275
0#
#276
1#
b00001110 )
b0000000000000100 ,
b00010110 -
b0001110 3
b0011101 4
#277
0#
#278
1#
b00011101 )
b0000000000000011 ,
b00010101 -
b0011101 3
b0111011 4
#279
0#
#280
1#
b00111011 )
b0000000000000010 ,
b00010100 -
b0111011 3
b1110110 4
#281
0#
#282
1#
b01110110 )
b0000000000000001 ,
b00010011 -
b1110110 3
b1101100 4
#283
0#
#284
1#
b01101100 )
b0000000000000000 ,
b00010010 -
b1101100 3
b1011000 4
#285
0#
#286
1#
b01011000 )
1+
b0000000000011011 ,
b00010001 -
10
b1011000 3
b0110001 4
#287
0#
#288
1#
b00001111 &
b00110001 )
0+
b0000000000011010 ,
b00010000 -
00
b00000000000000000000000000000100 1
b00000000000000000000000000000101 2
b0110001 3
b1100010 4
#289
0#
#290
1#
b01100010 )
b0000000000011001 ,
b00001111 -
b1100010 3
b1000101 4
#291
0#
#292
1#
b01000101 )
b0000000000011000 ,
b00001110 -
b1000101 3
b0001010 4
#293
0#
#294
1#
b00001010 )
b0000000000010111 ,
b00001101 -
b0001010 3
b0010100 4
#295
0#
#296
1#
b00010100 )
b0000000000010110 ,
b00001100 -
b0010100 3
b0101001 4
#297
0#
#298
1#
b00101001 )
b0000000000010101 ,
b00001011 -
b0101001 3
b1010010 4
#299
0#
#300
1#
b01010010 )
b0000000000010100 ,
b00001010 -
b1010010 3
b0100101 4
#301
0#
#302
1#
b00100101 )
b0000000000010011 ,
b00001001 -
b0100101 3
b1001011 4
#303
0#
#304
1#
b01001011 )
b0000000000010010 ,
b00001000 -
b1001011 3
b0010111 4
#305
0#
#306
1#
b00010111 )
b0000000000010001 ,
b00000111 -
b0010111 3
b0101111 4
#307
0#
#308
1#
b00101111 )
b0000000000010000 ,
b00000110 -
b0101111 3
b1011111 4
#309
0#
#310
1#
b01011111 )
b0000000000001111 ,
b00000101 -
b1011111 3
b0111110 4
#311
0#
#312
1#
b00111110 )
b0000000000001110 ,
b00000100 -
b0111110 3
b1111101 4
#313
0#
#314
1#
b01111101 )
b0000000000001101 ,
b00000011 -
b1111101 3
b1111010 4
#315
0#
#316
1#
b01111010 )
b0000000000001100 ,
b00000010 -
b1111010 3
b1110101 4
#317
0#
#318
1#
b01110101 )
b0000000000001011 ,
b00000001 -
b1110101 3
b1101010 4
#319
0#
#320
1#
b01101010 )
b0000000000001010 ,
b00000000 -
b1101010 3
b1010101 4
#321
0#
#322
1#
b01010101 )
b0000000000001001 ,
b01101001 -
b1010101 3
b0101010 4
#323
0#
#324
1#
b00101010 )
b0000000000001000 ,
b01101000 -
b0101010 3
b1010100 4
#325
0#
#326
1#
b01010100 )
b0000000000000111 ,
b01100111 -
b1010100 3
b0101000 4
#327
0#
#328
1#
b00101000 )
b0000000000000110 ,
b01100110 -
b0101000 3
b1010000 4
#329
0#
#330
1#
b01010000 )
b0000000000000101 ,
b01100101 -
b1010000 3
b0100001 4
#331
0#
#332
1#
b00100001 )
b0000000000000100 ,
b01100100 -
b0100001 3
b1000010 4
#333
0#
#334
1#
b01000010 )
b0000000000000011 ,
b01100011 -
b1000010 3
b0000101 4
#335
0#
#336
1#
b00000101 )
b0000000000000010 ,
b01100010 -
b0000101 3
b0001011 4
#337
0#
#338
1#
b00001011 )
b0000000000000001 ,
b01100001 -
b0001011 3
b0010110 4
#339
0#
#340
1#
b00010110 )
b0000000000000000 ,
b01100000 -
b0010110 3
b0101101 4
#341
0#
#342
1#
b00101101 )
1+
b0000000000011011 ,
b01011111 -
10
b0101101 3
b1011011 4
#343
0#
#344
1#
b00011111 &
b01011011 )
0+
b0000000000011010 ,
b01011110 -
00
b00000000000000000000000000000101 1
b00000000000000000000000000000110 2
b1011011 3
b0110111 4
#345
0#
#346
1#
b00110111 )
b0000000000011001 ,
b01011101 -
b0110111 3
b1101111 4
#347
0#
#348
1#
b01101111 )
b0000000000011000 ,
b01011100 -
b1101111 3
b1011110 4
#349
0#
#350
1#
b01011110 )
b0000000000010111 ,
b01011011 -
b1011110 3
b0111100 4
#351
0#
#352
1#
b00111100 )
b0000000000010110 ,
b01011010 -
b0111100 3
b1111001 4
#353
0#
#354
1#
b01111001 )
b0000000000010101 ,
b01011001 -
b1111001 3
b1110011 4
#355
0#
#356
1#
b01110011 )
b0000000000010100 ,
b01011000 -
b1110011 3
b1100111 4
#357
0#
#358
1#
b01100111 )
b0000000000010011 ,
b01010111 -
b1100111 3
b1001110 4
#359
0#
#360
1#
b01001110 )
b0000000000010010 ,
b01010110 -
b1001110 3
b0011100 4
#361
0#
#362
1#
b00011100 )
b0000000000010001 ,
b01010101 -
b0011100 3
b0111001 4
#363
0#
#364
1#
b00111001 )
b0000000000010000 ,
b01010100 -
b0111001 3
b1110010 4
#365
0#
#366
1#
b01110010 )
b0000000000001111 ,
b01010011 -
b1110010 3
b1100101 4
#367
0#
#368
1#
b01100101 )
b0000000000001110 ,
b01010010 -
b1100101 3
b1001010 4
#369
0#
#370
1#
b01001010 )
b0000000000001101 ,
b01010001 -
b1001010 3
b0010101 4
#371
0#
#372
1#
b00010101 )
b0000000000001100 ,
b01010000 -
b0010101 3
b0101011 4
#373
0#
#374
1#
b00101011 )
b0000000000001011 ,
b01001111 -
b0101011 3
b1010110 4
#375
0#
#376
1#
b01010110 )
b0000000000001010 ,
b01001110 -
b1010110 3
b0101100 4
#377
0#
#378
1#
b00101100 )
b0000000000001001 ,
b01001101 -
b0101100 3
b1011001 4
#379
0#
#380
1#
b01011001 )
b0000000000001000 ,
b01001100 -
b1011001 3
b0110011 4
#381
0#
#382
1#
b00110011 )
b0000000000000111 ,
b01001011 -
b0110011 3
b1100110 4
#383
0#
#384
1#
b01100110 )
b0000000000000110 ,
b01001010 -
b1100110 3
b1001100 4
#385
0#
#386
1#
b01001100 )
b0000000000000101 ,
b01001001 -
b1001100 3
b0011000 4
#387
0#
#388
1#
b00011000 )
b0000000000000100 ,
b01001000 -
b0011000 3
b0110000 4
#389
0#
#390
1#
b00110000 )
b0000000000000011 ,
b01000111 -
b0110000 3
b1100000 4
#391
0#
#392
1#
b01100000 )
b0000000000000010 ,
b01000110 -
b1100000 3
b1000001 4
#393
0#
#394
1#
b01000001 )
b0000000000000001 ,
b01000101 -
b1000001 3
b0000011 4
#395
0#
#396
1#
b00000011 )
b0000000000000000 ,
b01000100 -
b0000011 3
b0000110 4
#397
0#
#398
1#
b00000110 )
1+
b0000000000011011 ,
b01000011 -
10
b0000110 3
b0001101 4
#399
0#
#400
1#
b00111111 &
b00001101 )
0+
b0000000000011010 ,
b01000010 -
00
b00000000000000000000000000000110 1
b00000000000000000000000000000111 2
b0001101 3
b0011011 4
#401
0#
#402
1#
b00011011 )
b0000000000011001 ,
b01000001 -
b0011011 3
b0110110 4
#403
0#
#404
1#
b00110110 )
b0000000000011000 ,
b01000000 -
b0110110 3
b1101101 4
#405
0#
#406
1#
b01101101 )
b0000000000010111 ,
b00111111 -
b1101101 3
b1011010 4
#407
0#
#408
1#
b01011010 )
b0000000000010110 ,
b00111110 -
b1011010 3
b0110101 4
#409
0#
#410
1#
b00110101 )
b0000000000010101 ,
b00111101 -
b0110101 3
b1101011 4
#411
0#
#412
1#
b01101011 )
b0000000000010100 ,
b00111100 -
b1101011 3
b1010111 4
#413
0#
#414
1#
b01010111 )
b0000000000010011 ,
b00111011 -
b1010111 3
b0101110 4
#415
0#
#416
1#
b00101110 )
b0000000000010010 ,
b00111010 -
b0101110 3
b1011101 4
#417
0#
#418
1#
b01011101 )
b0000000000010001 ,
b00111001 -
b1011101 3
b0111010 4
#419
0#
#420
1#
b00111010 )
b0000000000010000 ,
b00111000 -
b0111010 3
b1110100 4
#421
0#
#422
1#
b01110100 )
b0000000000001111 ,
b00110111 -
b1110100 3
b1101000 4
#423
0#
#424
1#
b01101000 )
b0000000000001110 ,
b00110110 -
b1101000 3
b1010001 4
#425
0#
#426
1#
b01010001 )
b0000000000001101 ,
b00110101 -
b1010001 3
b0100011 4
#427
0#
#428
1#
b00100011 )
b0000000000001100 ,
b00110100 -
b0100011 3
b1000110 4
#429
0#
#430
1#
b01000110 )
b0000000000001011 ,
b00110011 -
b1000110 3
b0001100 4
#431
0#
#432
1#
b00001100 )
b0000000000001010 ,
b00110010 -
b0001100 3
b0011001 4
#433
0#
#434
1#
b00011001 )
b0000000000001001 ,
b00110001 -
b0011001 3
b0110010 4
#435
0#
#436
1#
b00110010 )
b0000000000001000 ,
b00110000 -
b0110010 3
b1100100 4
#437
0#
#438
1#
b01100100 )
b0000000000000111 ,
b00101111 -
b1100100 3
b1001000 4
#439
0#
#440
1#
b01001000 )
b0000000000000110 ,
b00101110 -
b1001000 3
b0010001 4
#441
0#
#442
1#
b00010001 )
b0000000000000101 ,
b00101101 -
b0010001 3
b0100010 4
#443
0#
#444
1#
b00100010 )
b0000000000000100 ,
b00101100 -
b0100010 3
b1000100 4
#445
0#
#446
1#
b01000100 )
b0000000000000011 ,
b00101011 -
b1000100 3
b0001000 4
#447
0#
#448
1#
b00001000 )
b0000000000000010 ,
b00101010 -
b0001000 3
b0010000 4
#449
0#
#450
1#
b00010000 )
b0000000000000001 ,
b00101001 -
b0010000 3
b0100000 4
#451
0#
#452
1#
b00100000 )
b0000000000000000 ,
b00101000 -
b0100000 3
b1000000 4
#453
0#
#454
1#
b01000000 )
1+
b0000000000011011 ,
b00100111 -
10
b1000000 3
b0000001 4
#455
0#
#456
1#
b01111111 &
b00000001 )
0+
b0000000000011010 ,
b00100110 -
00
b00000000000000000000000000000111 1
b00000000000000000000000000001000 2
b0000001 3
b0000010 4
#457
0#
#458
1#
b00000010 )
b0000000000011001 ,
b00100101 -
b0000010 3
b0000100 4
#459
0#
#460
1#
b00000100 )
b0000000000011000 ,
b00100100 -
b0000100 3
b0001001 4
#461
0#
#462
1#
b00001001 )
b0000000000010111 ,
b00100011 -
b0001001 3
b0010010 4
#463
0#
#464
1#
b00010010 )
b0000000000010110 ,
b00100010 -
b0010010 3
b0100100 4
#465
0#
#466
1#
b00100100 )
b0000000000010101 ,
b00100001 -
b0100100 3
b1001001 4
#467
0#
#468
1#
b01001001 )
b0000000000010100 ,
b00100000 -
b1001001 3
b0010011 4
#469
0#
#470
1#
b00010011 )
b0000000000010011 ,
b00011111 -
b0010011 3
b0100110 4
#471
0#
#472
1#
b00100110 )
b0000000000010010 ,
b00011110 -
b0100110 3
b1001101 4
#473
0#
#474
1#
b01001101 )
b0000000000010001 ,
b00011101 -
b1001101 3
b0011010 4
#475
0#
#476
1#
b00011010 )
b0000000000010000 ,
b00011100 -
b0011010 3
b0110100 4
#477
0#
#478
1#
b00110100 )
b0000000000001111 ,
b00011011 -
b0110100 3
b1101001 4
#479
0#
#480
1#
b01101001 )
b0000000000001110 ,
b00011010 -
b1101001 3
b1010011 4
#481
0#
#482
1#
b01010011 )
b0000000000001101 ,
b00011001 -
b1010011 3
b0100111 4
#483
0#
#484
1#
b00100111 )
b0000000000001100 ,
b00011000 -
b0100111 3
b1001111 4
#485
0#
#486
1#
b01001111 )
b0000000000001011 ,
b00010111 -
b1001111 3
b0011110 4
#487
0#
#488
1#
b00011110 )
b0000000000001010 ,
b00010110 -
b0011110 3
b0111101 4
#489
0#
#490
1#
b00111101 )
b0000000000001001 ,
b00010101 -
b0111101 3
b1111011 4
#491
0#
#492
1#
b01111011 )
b0000000000001000 ,
b00010100 -
b1111011 3
b1110111 4
#493
0#
#494
1#
b01110111 )
b0000000000000111 ,
b00010011 -
b1110111 3
b1101110 4
#495
0#
#496
1#
b01101110 )
b0000000000000110 ,
b00010010 -
b1101110 3
b1011100 4
#497
0#
#498
1#
b01011100 )
b0000000000000101 ,
b00010001 -
b1011100 3
b0111000 4
#499
0#
#500
1#
b00111000 )
b0000000000000100 ,
b00010000 -
b0111000 3
b1110000 4
#501
0#
#502
1#
b01110000 )
b0000000000000011 ,
b00001111 -
b1110000 3
b1100001 4
#503
0#
#504
1#
b01100001 )
b0000000000000010 ,
b00001110 -
b1100001 3
b1000011 4
#505
0#
#506
1#
b01000011 )
b0000000000000001 ,
b00001101 -
b1000011 3
b0000111 4
#507
0#
#508
1#
b00000111 )
b0000000000000000 ,
b00001100 -
b0000111 3
b0001111 4
#509
0#
#510
1#
b00001111 )
1+
b0000000000011011 ,
b00001011 -
10
b0001111 3
b0011111 4
#511
0#
#512
1#
b11111111 &
0'
1(
b00011111 )
0+
b0000000000011010 ,
b00001010 -
b00000000000000000000000000000001 /
00
b00000000000000000000000000001000 1
b00000000000000000000000000000000 2
b0011111 3
b0111111 4
#513
0#
#514
1#
b00111111 )
b00011110 -
b00000000000000000000000000000001 .
b0111111 3
b1111111 4
#515
0#
#516
1#
b01111111 )
b00111110 -
b1111111 3
b1111110 4
#517
0#
#518
1#
b01111110 )
b01111110 -
b1111110 3
b1111100 4
#519
0#
#520
1#
b01111100 )
b01111101 -
b1111100 3
b1111000 4
#521
0#
#522
1#
b01111000 )
b01111011 -
b1111000 3
b1110001 4
#523
0#
#524
1#
b01110001 )
b01110111 -
b1110001 3
b1100011 4
#525
0#
#526
1#
b01100011 )
b01110000 -
b1100011 3
b1000111 4
#527
0#
#528
1#
b01000111 )
b01100010 -
b1000111 3
b0001110 4
#529
0#
#530
1#
b00001110 )
b01000110 -
b0001110 3
b0011101 4
