task4/clktick.vcd
$version Generated by VerilatedVcd $end
$date Sat Nov  5 17:57:15 2022 $end
$timescale 1ps $end

 $scope module TOP $end
  $var wire  8 1 LFSROut [7:0] $end
  $var wire  1 * clk $end
  $var wire  1 0 cmd_delay $end
  $var wire  1 / cmd_seq $end
  $var wire  8 - countDownSpeed [7:0] $end
  $var wire  8 . dout [7:0] $end
  $var wire  1 + rst $end
  $var wire  1 2 time_out_0 $end
  $var wire  1 3 time_out_1 $end
  $var wire  1 , trigger $end
  $scope module top $end
   $var wire  8 1 LFSROut [7:0] $end
   $var wire  1 * clk $end
   $var wire  1 0 cmd_delay $end
   $var wire  1 / cmd_seq $end
   $var wire  8 - countDownSpeed [7:0] $end
   $var wire  8 . dout [7:0] $end
   $var wire  1 + rst $end
   $var wire  1 2 time_out_0 $end
   $var wire  1 3 time_out_1 $end
   $var wire  1 , trigger $end
   $scope module myClktick $end
    $var wire 16 4 N [15:0] $end
    $var wire 32 8 WIDTH [31:0] $end
    $var wire  1 * clk $end
    $var wire 16 # count [15:0] $end
    $var wire  1 / en $end
    $var wire  1 + rst $end
    $var wire  1 3 tick $end
   $upscope $end
   $scope module myDelay $end
    $var wire 32 9 WIDTH [31:0] $end
    $var wire  1 * clk $end
    $var wire  8 $ count [7:0] $end
    $var wire 32 % current_state [31:0] $end
    $var wire  8 1 n [7:0] $end
    $var wire 32 5 next_state [31:0] $end
    $var wire  1 + rst $end
    $var wire  1 2 time_out $end
    $var wire  1 0 trigger $end
   $upscope $end
   $scope module myF1FSM $end
    $var wire  1 * clk $end
    $var wire  1 0 cmd_delay $end
    $var wire  1 / cmd_seq $end
    $var wire 32 ' current [31:0] $end
    $var wire  8 . dout [7:0] $end
    $var wire  1 & en $end
    $var wire 32 ( next [31:0] $end
    $var wire  1 + rst $end
    $var wire  1 , trigger $end
    $var wire  1 ) triggerFlag $end
   $upscope $end
   $scope module myLFSR $end
    $var wire 32 : WIDTH [31:0] $end
    $var wire  1 * clk $end
    $var wire  7 6 data_out [6:0] $end
    $var wire  1 ; en $end
    $var wire  1 + rst $end
    $var wire  7 7 sreg [6:0] $end
   $upscope $end
  $upscope $end
 $upscope $end
$enddefinitions $end


#0
b0000000000000000 #
b00000000 $
b00000000000000000000000000000000 %
0&
b00000000000000000000000000000000 '
b00000000000000000000000000000000 (
0)
1*
1+
0,
b00000000 -
b00000000 .
0/
00
b00000000 1
02
03
b0000000000000000 4
b00000000000000000000000000000000 5
b0000000 6
b0000000 7
b00000000000000000000000000010000 8
b00000000000000000000000000001000 9
b00000000000000000000000000000111 :
1;
#1
b00000000000000000000000000000001 (
0*
#2
b11111111 $
1*
b00100011 -
b0000000000100011 4
b1111111 7
#3
0*
#4
b0000000000100011 #
1*
b01111111 1
b1111111 6
#5
0*
#6
b01111110 $
1*
0+
#7
0*
#8
b01111101 $
1*
b1111110 7
#9
0*
#10
b01111100 $
1*
b01111110 1
b1111110 6
b1111100 7
#11
0*
#12
b01111011 $
1*
b01111100 1
b1111100 6
b1111000 7
#13
0*
#14
b01111010 $
1*
b01111000 1
b1111000 6
b1110001 7
#15
0*
#16
b01111001 $
1*
b01110001 1
b1110001 6
b1100011 7
#17
0*
#18
b01111000 $
1*
b01100011 1
b1100011 6
b1000111 7
#19
0*
#20
b01110111 $
1*
b01000111 1
b1000111 6
b0001110 7
#21
0*
#22
b01110110 $
1*
b00001110 1
b0001110 6
b0011101 7
#23
0*
#24
b01110101 $
1*
b00011101 1
b0011101 6
b0111011 7
#25
0*
#26
b01110100 $
1*
b00111011 1
b0111011 6
b1110110 7
#27
0*
#28
b01110011 $
1*
b01110110 1
b1110110 6
b1101100 7
#29
0*
#30
b01110010 $
1*
b01101100 1
b1101100 6
b1011000 7
#31
0*
#32
b01110001 $
1*
b01011000 1
b1011000 6
b0110001 7
#33
0*
#34
b01110000 $
1*
b00110001 1
b0110001 6
b1100010 7
#35
0*
#36
b01101111 $
1*
b01100010 1
b1100010 6
b1000101 7
#37
0*
#38
b01101110 $
1*
b01000101 1
b1000101 6
b0001010 7
#39
0*
#40
b01101101 $
1*
b00001010 1
b0001010 6
b0010100 7
#41
0*
#42
b01101100 $
1*
b00010100 1
b0010100 6
b0101001 7
#43
0*
#44
b01101011 $
1*
b00101001 1
b0101001 6
b1010010 7
#45
0*
#46
b01101010 $
1*
b01010010 1
b1010010 6
b0100101 7
#47
0*
#48
b01101001 $
1*
b00100101 1
b0100101 6
b1001011 7
#49
0*
#50
b01101000 $
1*
b01001011 1
b1001011 6
b0010111 7
#51
0*
#52
b01100111 $
1*
b00010111 1
b0010111 6
b0101111 7
#53
0*
#54
b01100110 $
1*
b00101111 1
b0101111 6
b1011111 7
#55
0*
#56
b01100101 $
1*
b01011111 1
b1011111 6
b0111110 7
#57
0*
#58
b01100100 $
1*
b00111110 1
b0111110 6
b1111101 7
#59
0*
#60
b01100011 $
1*
b01111101 1
b1111101 6
b1111010 7
#61
0*
#62
b01100010 $
1*
b01111010 1
b1111010 6
b1110101 7
#63
0*
#64
b01100001 $
1*
b01110101 1
b1110101 6
b1101010 7
#65
0*
#66
b01100000 $
1*
b01101010 1
b1101010 6
b1010101 7
#67
0*
#68
b01011111 $
1*
b01010101 1
b1010101 6
b0101010 7
#69
0*
#70
b01011110 $
1*
b00101010 1
b0101010 6
b1010100 7
#71
0*
#72
b01011101 $
1*
b01010100 1
b1010100 6
b0101000 7
#73
0*
#74
b01011100 $
1*
b00101000 1
b0101000 6
b1010000 7
#75
0*
#76
b01011011 $
1*
b01010000 1
b1010000 6
b0100001 7
#77
0*
#78
b01011010 $
1*
b00100001 1
b0100001 6
b1000010 7
#79
0*
#80
b01011001 $
1*
b01000010 1
b1000010 6
b0000101 7
#81
0*
#82
b01011000 $
1*
b00000101 1
b0000101 6
b0001011 7
#83
0*
#84
b01010111 $
1*
b00001011 1
b0001011 6
b0010110 7
#85
0*
#86
b01010110 $
1*
b00010110 1
b0010110 6
b0101101 7
#87
0*
#88
b01010101 $
1*
b00101101 1
b0101101 6
b1011011 7
#89
0*
#90
b01010100 $
1*
b01011011 1
b1011011 6
b0110111 7
#91
0*
#92
b01010011 $
1*
b00110111 1
b0110111 6
b1101111 7
#93
0*
#94
b01010010 $
1*
b01101111 1
b1101111 6
b1011110 7
#95
0*
#96
b01010001 $
1*
b01011110 1
b1011110 6
b0111100 7
#97
0*
#98
b01010000 $
1*
b00111100 1
b0111100 6
b1111001 7
#99
0*
#100
b01001111 $
1*
b01111001 1
b1111001 6
b1110011 7
#101
0*
#102
b01001110 $
1*
b01110011 1
b1110011 6
b1100111 7
#103
0*
#104
b01001101 $
1*
b01100111 1
b1100111 6
b1001110 7
#105
0*
#106
b01001100 $
1*
b01001110 1
b1001110 6
b0011100 7
#107
0*
#108
b01001011 $
1*
b00011100 1
b0011100 6
b0111001 7
#109
0*
#110
b01001010 $
1*
b00111001 1
b0111001 6
b1110010 7
#111
0*
#112
b01001001 $
1*
b01110010 1
b1110010 6
b1100101 7
#113
0*
#114
b01001000 $
1*
b01100101 1
b1100101 6
b1001010 7
#115
0*
#116
b01000111 $
1*
b01001010 1
b1001010 6
b0010101 7
#117
0*
#118
b01000110 $
1*
b00010101 1
b0010101 6
b0101011 7
#119
0*
#120
b01000101 $
1*
b00101011 1
b0101011 6
b1010110 7
#121
0*
#122
b01000100 $
1*
b01010110 1
b1010110 6
b0101100 7
#123
0*
#124
b01000011 $
1*
b00101100 1
b0101100 6
b1011001 7
#125
0*
#126
b01000010 $
1*
1,
b01011001 1
b1011001 6
b0110011 7
#127
b00000000000000000000000000000001 '
b00000000000000000000000000000010 (
1)
0*
b00000001 .
1/
#128
b0000000000100010 #
b01000001 $
1*
b00110011 1
b0110011 6
b1100110 7
#129
0*
#130
b0000000000100001 #
b01000000 $
1*
b01100110 1
b1100110 6
b1001100 7
#131
0*
#132
b0000000000100000 #
b00111111 $
1*
b01001100 1
b1001100 6
b0011000 7
#133
0*
#134
b0000000000011111 #
b00111110 $
1*
b00011000 1
b0011000 6
b0110000 7
#135
0*
#136
b0000000000011110 #
b00111101 $
1*
b00110000 1
b0110000 6
b1100000 7
#137
0*
#138
b0000000000011101 #
b00111100 $
1*
b01100000 1
b1100000 6
b1000001 7
#139
0*
#140
b0000000000011100 #
b00111011 $
1*
b01000001 1
b1000001 6
b0000011 7
#141
0*
#142
b0000000000011011 #
b00111010 $
1*
b00000011 1
b0000011 6
b0000110 7
#143
0*
#144
b0000000000011010 #
b00111001 $
1*
b00000110 1
b0000110 6
b0001101 7
#145
0*
#146
b0000000000011001 #
b00111000 $
1*
b00001101 1
b0001101 6
b0011011 7
#147
0*
#148
b0000000000011000 #
b00110111 $
1*
b00011011 1
b0011011 6
b0110110 7
#149
0*
#150
b0000000000010111 #
b00110110 $
1*
b00110110 1
b0110110 6
b1101101 7
#151
0*
#152
b0000000000010110 #
b00110101 $
1*
b01101101 1
b1101101 6
b1011010 7
#153
0*
#154
b0000000000010101 #
b00110100 $
1*
b01011010 1
b1011010 6
b0110101 7
#155
0*
#156
b0000000000010100 #
b00110011 $
1*
b00110101 1
b0110101 6
b1101011 7
#157
0*
#158
b0000000000010011 #
b00110010 $
1*
b01101011 1
b1101011 6
b1010111 7
#159
0*
#160
b0000000000010010 #
b00110001 $
1*
b01010111 1
b1010111 6
b0101110 7
#161
0*
#162
b0000000000010001 #
b00110000 $
1*
b00101110 1
b0101110 6
b1011101 7
#163
0*
#164
b0000000000010000 #
b00101111 $
1*
b01011101 1
b1011101 6
b0111010 7
#165
0*
#166
b0000000000001111 #
b00101110 $
1*
b00111010 1
b0111010 6
b1110100 7
#167
0*
#168
b0000000000001110 #
b00101101 $
1*
b01110100 1
b1110100 6
b1101000 7
#169
0*
#170
b0000000000001101 #
b00101100 $
1*
b01101000 1
b1101000 6
b1010001 7
#171
0*
#172
b0000000000001100 #
b00101011 $
1*
b01010001 1
b1010001 6
b0100011 7
#173
0*
#174
b0000000000001011 #
b00101010 $
1*
b00100011 1
b0100011 6
b1000110 7
#175
0*
#176
b0000000000001010 #
b00101001 $
1*
b01000110 1
b1000110 6
b0001100 7
#177
0*
#178
b0000000000001001 #
b00101000 $
1*
b00001100 1
b0001100 6
b0011001 7
#179
0*
#180
b0000000000001000 #
b00100111 $
1*
b00011001 1
b0011001 6
b0110010 7
#181
0*
#182
b0000000000000111 #
b00100110 $
1*
b00110010 1
b0110010 6
b1100100 7
#183
0*
#184
b0000000000000110 #
b00100101 $
1*
b01100100 1
b1100100 6
b1001000 7
#185
0*
#186
b0000000000000101 #
b00100100 $
1*
b01001000 1
b1001000 6
b0010001 7
#187
0*
#188
b0000000000000100 #
b00100011 $
1*
b00010001 1
b0010001 6
b0100010 7
#189
0*
#190
b0000000000000011 #
b00100010 $
1*
b00100010 1
b0100010 6
b1000100 7
#191
0*
#192
b0000000000000010 #
b00100001 $
1*
b01000100 1
b1000100 6
b0001000 7
#193
0*
#194
b0000000000000001 #
b00100000 $
1*
b00001000 1
b0001000 6
b0010000 7
#195
0*
#196
b0000000000000000 #
b00011111 $
1*
b00010000 1
b0010000 6
b0100000 7
#197
0*
#198
b0000000000100011 #
b00011110 $
1&
1*
b00100000 1
13
b0100000 6
b1000000 7
#199
0*
#200
b0000000000100010 #
b00011101 $
0&
b00000000000000000000000000000010 '
b00000000000000000000000000000011 (
1*
b00000011 .
b01000000 1
03
b1000000 6
b0000001 7
#201
0*
#202
b0000000000100001 #
b00011100 $
1*
b00000001 1
b0000001 6
b0000010 7
#203
0*
#204
b0000000000100000 #
b00011011 $
1*
b00000010 1
b0000010 6
b0000100 7
#205
0*
#206
b0000000000011111 #
b00011010 $
1*
b00000100 1
b0000100 6
b0001001 7
#207
0*
#208
b0000000000011110 #
b00011001 $
1*
b00001001 1
b0001001 6
b0010010 7
#209
0*
#210
b0000000000011101 #
b00011000 $
1*
b00010010 1
b0010010 6
b0100100 7
#211
0*
#212
b0000000000011100 #
b00010111 $
1*
b00100100 1
b0100100 6
b1001001 7
#213
0*
#214
b0000000000011011 #
b00010110 $
1*
b01001001 1
b1001001 6
b0010011 7
#215
0*
#216
b0000000000011010 #
b00010101 $
1*
b00010011 1
b0010011 6
b0100110 7
#217
0*
#218
b0000000000011001 #
b00010100 $
1*
b00100110 1
b0100110 6
b1001101 7
#219
0*
#220
b0000000000011000 #
b00010011 $
1*
b01001101 1
b1001101 6
b0011010 7
#221
0*
#222
b0000000000010111 #
b00010010 $
1*
b00011010 1
b0011010 6
b0110100 7
#223
0*
#224
b0000000000010110 #
b00010001 $
1*
b00110100 1
b0110100 6
b1101001 7
#225
0*
#226
b0000000000010101 #
b00010000 $
1*
b01101001 1
b1101001 6
b1010011 7
#227
0*
#228
b0000000000010100 #
b00001111 $
1*
b01010011 1
b1010011 6
b0100111 7
#229
0*
#230
b0000000000010011 #
b00001110 $
1*
b00100111 1
b0100111 6
b1001111 7
#231
0*
#232
b0000000000010010 #
b00001101 $
1*
b01001111 1
b1001111 6
b0011110 7
#233
0*
#234
b0000000000010001 #
b00001100 $
1*
b00011110 1
b0011110 6
b0111101 7
#235
0*
#236
b0000000000010000 #
b00001011 $
1*
b00111101 1
b0111101 6
b1111011 7
#237
0*
#238
b0000000000001111 #
b00001010 $
1*
b01111011 1
b1111011 6
b1110111 7
#239
0*
#240
b0000000000001110 #
b00001001 $
1*
b01110111 1
b1110111 6
b1101110 7
#241
0*
#242
b0000000000001101 #
b00001000 $
1*
b01101110 1
b1101110 6
b1011100 7
#243
0*
#244
b0000000000001100 #
b00000111 $
1*
b01011100 1
b1011100 6
b0111000 7
#245
0*
#246
b0000000000001011 #
b00000110 $
1*
b00111000 1
b0111000 6
b1110000 7
#247
0*
#248
b0000000000001010 #
b00000101 $
1*
b01110000 1
b1110000 6
b1100001 7
#249
0*
#250
b0000000000001001 #
b00000100 $
1*
b01100001 1
b1100001 6
b1000011 7
#251
0*
#252
b0000000000001000 #
b00000011 $
1*
b01000011 1
b1000011 6
b0000111 7
#253
0*
#254
b0000000000000111 #
b00000010 $
1*
b00000111 1
b0000111 6
b0001111 7
#255
0*
#256
b0000000000000110 #
b00000001 $
1*
b00001111 1
b0001111 6
b0011111 7
#257
0*
#258
b0000000000000101 #
b00000000 $
1*
b00011111 1
b0011111 6
b0111111 7
#259
0*
#260
b0000000000000100 #
b00011110 $
1*
b00111111 1
b0111111 6
b1111111 7
#261
0*
#262
b0000000000000011 #
b00011101 $
1*
b01111111 1
b1111111 6
b1111110 7
#263
0*
#264
b0000000000000010 #
b00011100 $
1*
b01111110 1
b1111110 6
b1111100 7
#265
0*
#266
b0000000000000001 #
b00011011 $
1*
b01111100 1
b1111100 6
b1111000 7
#267
0*
#268
b0000000000000000 #
b00011010 $
1*
b01111000 1
b1111000 6
b1110001 7
#269
0*
#270
b0000000000100011 #
b00011001 $
1&
1*
b01110001 1
13
b1110001 6
b1100011 7
#271
0*
#272
b0000000000100010 #
b00011000 $
0&
b00000000000000000000000000000011 '
b00000000000000000000000000000100 (
1*
b00000111 .
b01100011 1
03
b1100011 6
b1000111 7
#273
0*
#274
b0000000000100001 #
b00010111 $
1*
b01000111 1
b1000111 6
b0001110 7
#275
0*
#276
b0000000000100000 #
b00010110 $
1*
b00001110 1
b0001110 6
b0011101 7
#277
0*
#278
b0000000000011111 #
b00010101 $
1*
b00011101 1
b0011101 6
b0111011 7
#279
0*
#280
b0000000000011110 #
b00010100 $
1*
b00111011 1
b0111011 6
b1110110 7
#281
0*
#282
b0000000000011101 #
b00010011 $
1*
b01110110 1
b1110110 6
b1101100 7
#283
0*
#284
b0000000000011100 #
b00010010 $
1*
b01101100 1
b1101100 6
b1011000 7
#285
0*
#286
b0000000000011011 #
b00010001 $
1*
b01011000 1
b1011000 6
b0110001 7
#287
0*
#288
b0000000000011010 #
b00010000 $
1*
b00110001 1
b0110001 6
b1100010 7
#289
0*
#290
b0000000000011001 #
b00001111 $
1*
b01100010 1
b1100010 6
b1000101 7
#291
0*
#292
b0000000000011000 #
b00001110 $
1*
b01000101 1
b1000101 6
b0001010 7
#293
0*
#294
b0000000000010111 #
b00001101 $
1*
b00001010 1
b0001010 6
b0010100 7
#295
0*
#296
b0000000000010110 #
b00001100 $
1*
b00010100 1
b0010100 6
b0101001 7
#297
0*
#298
b0000000000010101 #
b00001011 $
1*
b00101001 1
b0101001 6
b1010010 7
#299
0*
#300
b0000000000010100 #
b00001010 $
1*
b01010010 1
b1010010 6
b0100101 7
#301
0*
#302
b0000000000010011 #
b00001001 $
1*
b00100101 1
b0100101 6
b1001011 7
#303
0*
#304
b0000000000010010 #
b00001000 $
1*
b01001011 1
b1001011 6
b0010111 7
#305
0*
#306
b0000000000010001 #
b00000111 $
1*
b00010111 1
b0010111 6
b0101111 7
#307
0*
#308
b0000000000010000 #
b00000110 $
1*
b00101111 1
b0101111 6
b1011111 7
#309
0*
#310
b0000000000001111 #
b00000101 $
1*
b01011111 1
b1011111 6
b0111110 7
#311
0*
#312
b0000000000001110 #
b00000100 $
1*
b00111110 1
b0111110 6
b1111101 7
#313
0*
#314
b0000000000001101 #
b00000011 $
1*
b01111101 1
b1111101 6
b1111010 7
#315
0*
#316
b0000000000001100 #
b00000010 $
1*
b01111010 1
b1111010 6
b1110101 7
#317
0*
#318
b0000000000001011 #
b00000001 $
1*
b01110101 1
b1110101 6
b1101010 7
#319
0*
#320
b0000000000001010 #
b00000000 $
1*
b01101010 1
b1101010 6
b1010101 7
#321
0*
#322
b0000000000001001 #
b01101001 $
1*
b01010101 1
b1010101 6
b0101010 7
#323
0*
#324
b0000000000001000 #
b01101000 $
1*
b00101010 1
b0101010 6
b1010100 7
#325
0*
#326
b0000000000000111 #
b01100111 $
1*
b01010100 1
b1010100 6
b0101000 7
#327
0*
#328
b0000000000000110 #
b01100110 $
1*
b00101000 1
b0101000 6
b1010000 7
#329
0*
#330
b0000000000000101 #
b01100101 $
1*
b01010000 1
b1010000 6
b0100001 7
#331
0*
#332
b0000000000000100 #
b01100100 $
1*
b00100001 1
b0100001 6
b1000010 7
#333
0*
#334
b0000000000000011 #
b01100011 $
1*
b01000010 1
b1000010 6
b0000101 7
#335
0*
#336
b0000000000000010 #
b01100010 $
1*
b00000101 1
b0000101 6
b0001011 7
#337
0*
#338
b0000000000000001 #
b01100001 $
1*
b00100000 -
b00001011 1
b0000000000100000 4
b0001011 6
b0010110 7
#339
0*
#340
b0000000000000000 #
b01100000 $
1*
b00011111 -
b00010110 1
b0000000000011111 4
b0010110 6
b0101101 7
#341
0*
#342
b0000000000011111 #
b01011111 $
1&
1*
b00101101 1
13
b0101101 6
b1011011 7
#343
0*
#344
b0000000000011110 #
b01011110 $
0&
b00000000000000000000000000000100 '
b00000000000000000000000000000101 (
1*
b00011110 -
b00001111 .
b01011011 1
03
b0000000000011110 4
b1011011 6
b0110111 7
#345
0*
#346
b0000000000011101 #
b01011101 $
1*
b00110111 1
b0110111 6
b1101111 7
#347
0*
#348
b0000000000011100 #
b01011100 $
1*
b01101111 1
b1101111 6
b1011110 7
#349
0*
#350
b0000000000011011 #
b01011011 $
1*
b01011110 1
b1011110 6
b0111100 7
#351
0*
#352
b0000000000011010 #
b01011010 $
1*
b00111100 1
b0111100 6
b1111001 7
#353
0*
#354
b0000000000011001 #
b01011001 $
1*
b01111001 1
b1111001 6
b1110011 7
#355
0*
#356
b0000000000011000 #
b01011000 $
1*
b01110011 1
b1110011 6
b1100111 7
#357
0*
#358
b0000000000010111 #
b01010111 $
1*
b01100111 1
b1100111 6
b1001110 7
#359
0*
#360
b0000000000010110 #
b01010110 $
1*
b00011101 -
b01001110 1
b0000000000011101 4
b1001110 6
b0011100 7
#361
0*
#362
b0000000000010101 #
b01010101 $
1*
b00011100 -
b00011100 1
b0000000000011100 4
b0011100 6
b0111001 7
#363
0*
#364
b0000000000010100 #
b01010100 $
1*
b00011011 -
b00111001 1
b0000000000011011 4
b0111001 6
b1110010 7
#365
0*
#366
b0000000000010011 #
b01010011 $
1*
b00011010 -
b01110010 1
b0000000000011010 4
b1110010 6
b1100101 7
#367
0*
#368
b0000000000010010 #
b01010010 $
1*
b00011001 -
b01100101 1
b0000000000011001 4
b1100101 6
b1001010 7
#369
0*
#370
b0000000000010001 #
b01010001 $
1*
b00011000 -
b01001010 1
b0000000000011000 4
b1001010 6
b0010101 7
#371
0*
#372
b0000000000010000 #
b01010000 $
1*
b00010101 1
b0010101 6
b0101011 7
#373
0*
#374
b0000000000001111 #
b01001111 $
1*
b00101011 1
b0101011 6
b1010110 7
#375
0*
#376
b0000000000001110 #
b01001110 $
1*
b01010110 1
b1010110 6
b0101100 7
#377
0*
#378
b0000000000001101 #
b01001101 $
1*
b00101100 1
b0101100 6
b1011001 7
#379
0*
#380
b0000000000001100 #
b01001100 $
1*
b01011001 1
b1011001 6
b0110011 7
#381
0*
#382
b0000000000001011 #
b01001011 $
1*
b00110011 1
b0110011 6
b1100110 7
#383
0*
#384
b0000000000001010 #
b01001010 $
1*
b01100110 1
b1100110 6
b1001100 7
#385
0*
#386
b0000000000001001 #
b01001001 $
1*
b01001100 1
b1001100 6
b0011000 7
#387
0*
#388
b0000000000001000 #
b01001000 $
1*
b00011000 1
b0011000 6
b0110000 7
#389
0*
#390
b0000000000000111 #
b01000111 $
1*
b00110000 1
b0110000 6
b1100000 7
#391
0*
#392
b0000000000000110 #
b01000110 $
1*
b01100000 1
b1100000 6
b1000001 7
#393
0*
#394
b0000000000000101 #
b01000101 $
1*
b01000001 1
b1000001 6
b0000011 7
#395
0*
#396
b0000000000000100 #
b01000100 $
1*
b00000011 1
b0000011 6
b0000110 7
#397
0*
#398
b0000000000000011 #
b01000011 $
1*
b00000110 1
b0000110 6
b0001101 7
#399
0*
#400
b0000000000000010 #
b01000010 $
1*
b00001101 1
b0001101 6
b0011011 7
#401
0*
#402
b0000000000000001 #
b01000001 $
1*
b00011011 1
b0011011 6
b0110110 7
#403
0*
#404
b0000000000000000 #
b01000000 $
1*
b00110110 1
b0110110 6
b1101101 7
#405
0*
#406
b0000000000011000 #
b00111111 $
1&
1*
b01101101 1
13
b1101101 6
b1011010 7
#407
0*
#408
b0000000000010111 #
b00111110 $
0&
b00000000000000000000000000000101 '
b00000000000000000000000000000110 (
1*
b00011111 .
b01011010 1
03
b1011010 6
b0110101 7
#409
0*
#410
b0000000000010110 #
b00111101 $
1*
b00110101 1
b0110101 6
b1101011 7
#411
0*
#412
b0000000000010101 #
b00111100 $
1*
b01101011 1
b1101011 6
b1010111 7
#413
0*
#414
b0000000000010100 #
b00111011 $
1*
b01010111 1
b1010111 6
b0101110 7
#415
0*
#416
b0000000000010011 #
b00111010 $
1*
b00101110 1
b0101110 6
b1011101 7
#417
0*
#418
b0000000000010010 #
b00111001 $
1*
b01011101 1
b1011101 6
b0111010 7
#419
0*
#420
b0000000000010001 #
b00111000 $
1*
b00111010 1
b0111010 6
b1110100 7
#421
0*
#422
b0000000000010000 #
b00110111 $
1*
b01110100 1
b1110100 6
b1101000 7
#423
0*
#424
b0000000000001111 #
b00110110 $
1*
b01101000 1
b1101000 6
b1010001 7
#425
0*
#426
b0000000000001110 #
b00110101 $
1*
b01010001 1
b1010001 6
b0100011 7
#427
0*
#428
b0000000000001101 #
b00110100 $
1*
b00100011 1
b0100011 6
b1000110 7
#429
0*
#430
b0000000000001100 #
b00110011 $
1*
b01000110 1
b1000110 6
b0001100 7
#431
0*
#432
b0000000000001011 #
b00110010 $
1*
b00001100 1
b0001100 6
b0011001 7
#433
0*
#434
b0000000000001010 #
b00110001 $
1*
b00011001 1
b0011001 6
b0110010 7
#435
0*
#436
b0000000000001001 #
b00110000 $
1*
b00110010 1
b0110010 6
b1100100 7
#437
0*
#438
b0000000000001000 #
b00101111 $
1*
b01100100 1
b1100100 6
b1001000 7
#439
0*
#440
b0000000000000111 #
b00101110 $
1*
b01001000 1
b1001000 6
b0010001 7
#441
0*
#442
b0000000000000110 #
b00101101 $
1*
b00010001 1
b0010001 6
b0100010 7
#443
0*
#444
b0000000000000101 #
b00101100 $
1*
b00100010 1
b0100010 6
b1000100 7
#445
0*
#446
b0000000000000100 #
b00101011 $
1*
b01000100 1
b1000100 6
b0001000 7
#447
0*
#448
b0000000000000011 #
b00101010 $
1*
b00001000 1
b0001000 6
b0010000 7
#449
0*
#450
b0000000000000010 #
b00101001 $
1*
b00010000 1
b0010000 6
b0100000 7
#451
0*
#452
b0000000000000001 #
b00101000 $
1*
b00100000 1
b0100000 6
b1000000 7
#453
0*
#454
b0000000000000000 #
b00100111 $
1*
b01000000 1
b1000000 6
b0000001 7
#455
0*
#456
b0000000000011000 #
b00100110 $
1&
1*
b00000001 1
13
b0000001 6
b0000010 7
#457
0*
#458
b0000000000010111 #
b00100101 $
0&
b00000000000000000000000000000110 '
b00000000000000000000000000000111 (
1*
b00111111 .
b00000010 1
03
b0000010 6
b0000100 7
#459
0*
#460
b0000000000010110 #
b00100100 $
1*
b00000100 1
b0000100 6
b0001001 7
#461
0*
#462
b0000000000010101 #
b00100011 $
1*
b00001001 1
b0001001 6
b0010010 7
#463
0*
#464
b0000000000010100 #
b00100010 $
1*
b00010010 1
b0010010 6
b0100100 7
#465
0*
#466
b0000000000010011 #
b00100001 $
1*
b00100100 1
b0100100 6
b1001001 7
#467
0*
#468
b0000000000010010 #
b00100000 $
1*
b01001001 1
b1001001 6
b0010011 7
#469
0*
#470
b0000000000010001 #
b00011111 $
1*
b00010011 1
b0010011 6
b0100110 7
#471
0*
#472
b0000000000010000 #
b00011110 $
1*
b00100110 1
b0100110 6
b1001101 7
#473
0*
#474
b0000000000001111 #
b00011101 $
1*
b01001101 1
b1001101 6
b0011010 7
#475
0*
#476
b0000000000001110 #
b00011100 $
1*
b00011010 1
b0011010 6
b0110100 7
#477
0*
#478
b0000000000001101 #
b00011011 $
1*
b00110100 1
b0110100 6
b1101001 7
#479
0*
#480
b0000000000001100 #
b00011010 $
1*
b01101001 1
b1101001 6
b1010011 7
#481
0*
#482
b0000000000001011 #
b00011001 $
1*
b01010011 1
b1010011 6
b0100111 7
#483
0*
#484
b0000000000001010 #
b00011000 $
1*
b00100111 1
b0100111 6
b1001111 7
#485
0*
#486
b0000000000001001 #
b00010111 $
1*
b01001111 1
b1001111 6
b0011110 7
#487
0*
#488
b0000000000001000 #
b00010110 $
1*
b00011110 1
b0011110 6
b0111101 7
#489
0*
#490
b0000000000000111 #
b00010101 $
1*
b00111101 1
b0111101 6
b1111011 7
#491
0*
#492
b0000000000000110 #
b00010100 $
1*
b01111011 1
b1111011 6
b1110111 7
#493
0*
#494
b0000000000000101 #
b00010011 $
1*
b01110111 1
b1110111 6
b1101110 7
#495
0*
#496
b0000000000000100 #
b00010010 $
1*
b01101110 1
b1101110 6
b1011100 7
#497
0*
#498
b0000000000000011 #
b00010001 $
1*
b01011100 1
b1011100 6
b0111000 7
#499
0*
#500
b0000000000000010 #
b00010000 $
1*
b00111000 1
b0111000 6
b1110000 7
#501
0*
#502
b0000000000000001 #
b00001111 $
1*
b01110000 1
b1110000 6
b1100001 7
#503
0*
#504
b0000000000000000 #
b00001110 $
1*
b01100001 1
b1100001 6
b1000011 7
#505
0*
#506
b0000000000011000 #
b00001101 $
1&
1*
b01000011 1
13
b1000011 6
b0000111 7
#507
0*
#508
b0000000000010111 #
b00001100 $
0&
b00000000000000000000000000000111 '
b00000000000000000000000000001000 (
1*
b01111111 .
b00000111 1
03
b0000111 6
b0001111 7
#509
0*
#510
b0000000000010110 #
b00001011 $
1*
b00001111 1
b0001111 6
b0011111 7
#511
0*
#512
b0000000000010101 #
b00001010 $
1*
b00011111 1
b0011111 6
b0111111 7
#513
0*
#514
b0000000000010100 #
b00001001 $
1*
b00111111 1
b0111111 6
b1111111 7
#515
0*
#516
b0000000000010011 #
b00001000 $
1*
b01111111 1
b1111111 6
b1111110 7
#517
0*
#518
b0000000000010010 #
b00000111 $
1*
b01111110 1
b1111110 6
b1111100 7
#519
0*
#520
b0000000000010001 #
b00000110 $
1*
b01111100 1
b1111100 6
b1111000 7
#521
0*
#522
b0000000000010000 #
b00000101 $
1*
b01111000 1
b1111000 6
b1110001 7
#523
0*
#524
b0000000000001111 #
b00000100 $
1*
b01110001 1
b1110001 6
b1100011 7
#525
0*
#526
b0000000000001110 #
b00000011 $
1*
b01100011 1
b1100011 6
b1000111 7
#527
0*
#528
b0000000000001101 #
b00000010 $
1*
b01000111 1
b1000111 6
b0001110 7
#529
0*
#530
b0000000000001100 #
b00000001 $
1*
b00001110 1
b0001110 6
b0011101 7
#531
0*
#532
b0000000000001011 #
b00000000 $
1*
b00011101 1
b0011101 6
b0111011 7
#533
0*
#534
b0000000000001010 #
b00011100 $
1*
b00111011 1
b0111011 6
b1110110 7
#535
0*
#536
b0000000000001001 #
b00011011 $
1*
b01110110 1
b1110110 6
b1101100 7
#537
0*
#538
b0000000000001000 #
b00011010 $
1*
b01101100 1
b1101100 6
b1011000 7
#539
0*
#540
b0000000000000111 #
b00011001 $
1*
b01011000 1
b1011000 6
b0110001 7
#541
0*
#542
b0000000000000110 #
b00011000 $
1*
b00110001 1
b0110001 6
b1100010 7
#543
0*
#544
b0000000000000101 #
b00010111 $
1*
b01100010 1
b1100010 6
b1000101 7
#545
0*
#546
b0000000000000100 #
b00010110 $
1*
b01000101 1
b1000101 6
b0001010 7
#547
0*
#548
b0000000000000011 #
b00010101 $
1*
b00001010 1
b0001010 6
b0010100 7
#549
0*
#550
b0000000000000010 #
b00010100 $
1*
b00010100 1
b0010100 6
b0101001 7
#551
0*
#552
b0000000000000001 #
b00010011 $
1*
b00101001 1
b0101001 6
b1010010 7
#553
0*
#554
b0000000000000000 #
b00010010 $
1*
b01010010 1
b1010010 6
b0100101 7
#555
0*
